{
  "page": 1,
  "total_results": 3077,
  "total_pages": 154,
  "results": [
    {
      "vote_count": 2793,
      "id": 346364,
      "video": false,
      "vote_average": 7.4,
      "title": "It",
      "popularity": 769.591093,
      "poster_path": "/9E2y5Q7WlCVNEhP5GiVTjhEhx1o.jpg",
      "original_language": "en",
      "original_title": "It",
      "genre_ids": [
        12,
        18,
        27
      ],
      "backdrop_path": "/tcheoA2nPATCm2vvXw2hVQoaEFD.jpg",
      "adult": false,
      "overview": "In a small town in Maine, seven children known as The Losers Club come face to face with life problems, bullies and a monster that takes the shape of a clown called Pennywise.",
      "release_date": "2017-09-05"
    },
    {
      "vote_count": 135,
      "id": 477433,
      "video": false,
      "vote_average": 6.6,
      "title": "It",
      "popularity": 14.524777,
      "poster_path": "/1u1dqviADJKAmbMMPCMeD0nZlHb.jpg",
      "original_language": "en",
      "original_title": "It",
      "genre_ids": [
        18,
        14,
        27,
        9648,
        53
      ],
      "backdrop_path": "/hdqE8wIoFTewsYFLwkn4aVVMjlD.jpg",
      "adult": false,
      "overview": "In the quiet town of Derry, Maine, seven freinds, Bill, Eddie, Mike, Bev, Stan, Richie and Ben (The Losers Club) have all been seeing and hearing strange things. Most of which revolve around a Clown called Pennywise, which they all admit being real. The kids eventually discover that the leader of the club, Bill's little brother, fell victim to this evil. The group sets out to stop the force and put it to rest once and for all. 30 years after defeating IT, Mike Hanlon, the only Member who remained in Derry, suspects that IT has returned and is forced to call back all of the Losers club, due to a promise they all made to return if its evil shall ever resurface. Uncovering new powers, clues and evil the club reunites as adults and come face to face with the evil that has haunted and fed on Derry for the last centuries.",
      "release_date": "1990-11-18"
    },
    {
      "vote_count": 1927,
      "id": 270303,
      "video": false,
      "vote_average": 6.6,
      "title": "It Follows",
      "popularity": 19.731425,
      "poster_path": "/4MrwJZr0R9LbyOgZqwLNmtzzxbu.jpg",
      "original_language": "en",
      "original_title": "It Follows",
      "genre_ids": [
        27,
        53
      ],
      "backdrop_path": "/nwQgcgGVrKyjlxNzaDZud82pUly.jpg",
      "adult": false,
      "overview": "For 19-year-old Jay, fall should be about school, boys and weekends out at the lake. But a seemingly innocent physical encounter turns sour and gives her the inescapable sense that someone, or something, is following her. Faced with this burden, Jay and her teenage friends must find a way to escape the horror that seems to be only a few steps behind.",
      "release_date": "2015-02-04"
    },
    {
      "vote_count": 200,
      "id": 340677,
      "video": false,
      "vote_average": 5.3,
      "title": "I.T.",
      "popularity": 13.598038,
      "poster_path": "/46BJXoEkwu10dcZJ0psrLtCCBTP.jpg",
      "original_language": "en",
      "original_title": "I.T.",
      "genre_ids": [
        80,
        18,
        53
      ],
      "backdrop_path": "/rE5JaYnrqyEQfxatJYXckOjW7QC.jpg",
      "adult": false,
      "overview": "Mike Regan is a successful, self-made man who has it all: a gorgeous wife, a beautiful teenage daughter and a sleek, state-of-the-art “smart home”. But he soon finds himself in a deadly, high-stakes game of cat-and-mouse when his I.T. consultant, Ed, starts using his skills to stalk Mike’s daughter and endanger his family, his business, and his life. In a world where there is no privacy, and personal secrets can go viral by the click of a mouse, Mike needs to rely on his old connections to defeat a new kind of nemesis.",
      "release_date": "2016-09-09"
    },
    {
      "vote_count": 376,
      "id": 22798,
      "video": false,
      "vote_average": 6.7,
      "title": "Whip It",
      "popularity": 12.310778,
      "poster_path": "/At7kxW4HK54kALuD9qDhFgsxkKM.jpg",
      "original_language": "en",
      "original_title": "Whip It",
      "genre_ids": [
        18
      ],
      "backdrop_path": "/iIU2NlC0EpL5NTPtGWmupyoMPhN.jpg",
      "adult": false,
      "overview": "In Bodeen, Texas, Land Of The Dragon, an indie-rock loving misfit finds a way of dealing with her small-town misery after she discovers a roller derby league in nearby Austin.",
      "release_date": "2009-09-13"
    },
    {
      "vote_count": 156,
      "id": 10115,
      "video": false,
      "vote_average": 6.3,
      "title": "Stick It",
      "popularity": 10.131951,
      "poster_path": "/8EgxN4HcI0KUWuL6Qn1PG432Wsv.jpg",
      "original_language": "en",
      "original_title": "Stick It",
      "genre_ids": [
        35,
        18
      ],
      "backdrop_path": "/tNreuB9WZvFgDKnEOKC6fytzT4z.jpg",
      "adult": false,
      "overview": "Haley is a naturally gifted athlete but, with her social behavior, the teen seems intent on squandering her abilities. After a final brush with the law, a judge sentences her to an elite gymnastics academy run by a legendary, hard-nosed coach. Once there, Haley's rebellious attitude wins her both friends and enemies.",
      "release_date": "2006-04-21"
    },
    {
      "vote_count": 364,
      "id": 418078,
      "video": false,
      "vote_average": 5.6,
      "title": "It Comes at Night",
      "popularity": 13.409592,
      "poster_path": "/h9VOirT4dKXzVyVzZZxPfAghmRV.jpg",
      "original_language": "en",
      "original_title": "It Comes at Night",
      "genre_ids": [
        27,
        9648,
        53
      ],
      "backdrop_path": "/jaQe5U0CTjk0h3stMrkZG9qnSVh.jpg",
      "adult": false,
      "overview": "Secure within a desolate home as an unnatural threat terrorizes the world, a man has established a tenuous domestic order with his wife and son, but this will soon be put to test when a desperate young family arrives seeking refuge.",
      "release_date": "2017-06-09"
    },
    {
      "vote_count": 257,
      "id": 277547,
      "video": false,
      "vote_average": 5.6,
      "title": "Playing It Cool",
      "popularity": 12.965391,
      "poster_path": "/mBzSxaPOcq8XwXq4qkkyy8Ev9Go.jpg",
      "original_language": "en",
      "original_title": "Playing It Cool",
      "genre_ids": [
        35,
        10749
      ],
      "backdrop_path": "/2xMjPEXG6YqlvK4vYhl9fbNNusv.jpg",
      "adult": false,
      "overview": "The story of a young man disillusioned by love who meets a breathtaking young woman at a charity dinner by pretending to be a philanthropist. Turns out that she’s engaged to a guy who doesn’t like her going on dates. Challenged by the chase, and egged on by his eclectic friends, he feigns a platonic relationship in order to keep seeing her as he tries to conquer her heart",
      "release_date": "2014-09-26"
    },
    {
      "vote_count": 439,
      "id": 10647,
      "video": false,
      "vote_average": 7,
      "title": "Pay It Forward",
      "popularity": 12.906508,
      "poster_path": "/l5diVKdxKMUkn4jOAxASbbGtSl1.jpg",
      "original_language": "en",
      "original_title": "Pay It Forward",
      "genre_ids": [
        18,
        10749
      ],
      "backdrop_path": "/uxheQvbxDWCVTjv9RuX2PMMMLGZ.jpg",
      "adult": false,
      "overview": "Like some other kids, 12-year-old Trevor McKinney believed in the goodness of human nature. Like many other kids, he was determined to change the world for the better. Unlike most other kids, he succeeded.",
      "release_date": "2000-10-12"
    },
    {
      "vote_count": 1573,
      "id": 50546,
      "video": false,
      "vote_average": 6.3,
      "title": "Just Go with It",
      "popularity": 12.065281,
      "poster_path": "/4sJDqzBaqBprkEy0aLjIGl7TrHx.jpg",
      "original_language": "en",
      "original_title": "Just Go with It",
      "genre_ids": [
        10749,
        35
      ],
      "backdrop_path": "/sXpF6Vfy4o8fNHP1GBWBC3IxdrJ.jpg",
      "adult": false,
      "overview": "A plastic surgeon, romancing a much younger schoolteacher, enlists his loyal assistant to pretend to be his soon to be ex-wife, in order to cover up a careless lie. When more lies backfire, the assistant's kids become involved, and everyone heads off for a weekend in Hawaii that will change all their lives.",
      "release_date": "2011-02-10"
    },
    {
      "vote_count": 827,
      "id": 239,
      "video": false,
      "vote_average": 8,
      "title": "Some Like It Hot",
      "popularity": 11.260807,
      "poster_path": "/pxc9EFCMYkItESpqqrI783yl8Gh.jpg",
      "original_language": "en",
      "original_title": "Some Like It Hot",
      "genre_ids": [
        35,
        10749
      ],
      "backdrop_path": "/sdibVacEUaYcM41zmepM0J2xNqq.jpg",
      "adult": false,
      "overview": "Two musicians witness a mob hit and struggle to find a way out of the city before they are found by the gangsters. Their only opportunity is to join an all-girl band as they leave on a tour. To make their getaway they must first disguise themselves as women, then keep their identities secret and deal with the problems this brings - such as an attractive bandmate and a very determined suitor.",
      "release_date": "1959-03-18"
    },
    {
      "vote_count": 311,
      "id": 2800,
      "video": false,
      "vote_average": 5.3,
      "title": "Rumor Has It...",
      "popularity": 8.595557,
      "poster_path": "/6Hj5mFf1nv6gsYhGpz0xetPGYbg.jpg",
      "original_language": "en",
      "original_title": "Rumor Has It...",
      "genre_ids": [
        35
      ],
      "backdrop_path": "/dTenIZe8F2JlKCfFBs59qWeZ0t5.jpg",
      "adult": false,
      "overview": "Sarah Huttinger's return home with her fiance convinces her that the sedate, proper, country-club lifestyle of her family isn't for her – and that maybe the Huttinger family isn't even hers – as she uncovers secrets that suggest the Huttingers are neither sedate nor proper.",
      "release_date": "2005-12-23"
    },
    {
      "vote_count": 61,
      "id": 397442,
      "video": false,
      "vote_average": 5.7,
      "title": "Win It All",
      "popularity": 10.317473,
      "poster_path": "/aEc69JY0azD9PwYtwS2RFwoyFOT.jpg",
      "original_language": "en",
      "original_title": "Win It All",
      "genre_ids": [
        35
      ],
      "backdrop_path": "/c3Z2KVeDVnym09AiBZ3NAWWXMU5.jpg",
      "adult": false,
      "overview": "A gambling addict faces a conflict when entrusted with keeping a bunch of money that isn't his.",
      "release_date": "2017-03-11"
    },
    {
      "vote_count": 1,
      "id": 133035,
      "video": false,
      "vote_average": 5,
      "title": "It",
      "popularity": 1.041576,
      "poster_path": "/3QHIqbj2kHc7Mk6DDtEFc8tRNhj.jpg",
      "original_language": "de",
      "original_title": "Es",
      "genre_ids": [
        18
      ],
      "backdrop_path": null,
      "adult": false,
      "overview": "Manfred and Hilke live a live perfectly complied with each other in West Berlin. They managed to elude from the bourgeois conformity, which they loath. But when Hilke finds out about her pregnancy she estranges from her partner. Trying to keep her former life as it was, she desperately looks all over the city to get an abortion.",
      "release_date": "1966-03-17"
    },
    {
      "vote_count": 67,
      "id": 16791,
      "video": false,
      "vote_average": 5.5,
      "title": "Five Children and It",
      "popularity": 8.187117,
      "poster_path": "/8pwS9DSeAfNKeXC6ssTEHjxDH94.jpg",
      "original_language": "en",
      "original_title": "Five Children and It",
      "genre_ids": [
        12,
        14,
        18,
        878,
        10751
      ],
      "backdrop_path": "/aRZbzEos3nR55Q4oag3FTr2VQv4.jpg",
      "adult": false,
      "overview": "A Psammead is 'It', an ancient, irritable, ugly sand fairy, which five children find one day in a gravel pit. As a reward for finding him, It grants the children one wish a day, the results of which will last until sunset.",
      "release_date": "2004-10-15"
    },
    {
      "vote_count": 7,
      "id": 31232,
      "video": false,
      "vote_average": 6.8,
      "title": "It!",
      "popularity": 1.688749,
      "poster_path": "/xbJE4J3hrXVomT9VEKAPnQ4tjoa.jpg",
      "original_language": "en",
      "original_title": "It!",
      "genre_ids": [
        27,
        878
      ],
      "backdrop_path": "/h5kFrVWqkdwlwOidYiQVModpjvp.jpg",
      "adult": false,
      "overview": "After a warehouse fire, museum director Groof and assistant Pimm find everything destroyed, only one statue withstood the fire mysteriously undamaged. Suddenly Groof is lying dead on the ground, killed by the statue? Pimm finds out that the cursed statue has been created by Rabbi Loew in 16th century and will withstand every human attempt to destroy it. Pimm decides to use it to his own advantage.",
      "release_date": "1966-03-17"
    },
    {
      "vote_count": 164,
      "id": 253235,
      "video": false,
      "vote_average": 5.7,
      "title": "And So It Goes",
      "popularity": 8.619684,
      "poster_path": "/nuoE9Cy94KbJjQjyWGyDMtedfN3.jpg",
      "original_language": "en",
      "original_title": "And So It Goes",
      "genre_ids": [
        35,
        18,
        10749
      ],
      "backdrop_path": "/h3zCosx8qoQfLups4YawRxle43b.jpg",
      "adult": false,
      "overview": "A self-centered realtor enlists the help of his neighbor when he's suddenly left in charge of the granddaughter he never knew existed until his estranged son drops her off at his home.",
      "release_date": "2014-07-20"
    },
    {
      "vote_count": 4707,
      "id": 82690,
      "video": false,
      "vote_average": 7.1,
      "title": "Wreck-It Ralph",
      "popularity": 12.774182,
      "poster_path": "/93FsllrXXWncp7BQYTdOU1XMRXo.jpg",
      "original_language": "en",
      "original_title": "Wreck-It Ralph",
      "genre_ids": [
        10751,
        16,
        35,
        12
      ],
      "backdrop_path": "/1HjKgkIdR2qw8ihM6MTxgdST2kM.jpg",
      "adult": false,
      "overview": "Wreck-It Ralph is the 9-foot-tall, 643-pound villain of an arcade video game named Fix-It Felix Jr., in which the game's titular hero fixes buildings that Ralph destroys. Wanting to prove he can be a good guy and not just a villain, Ralph escapes his game and lands in Hero's Duty, a first-person shooter where he helps the game's hero battle against alien invaders. He later enters Sugar Rush, a kart racing game set on tracks made of candies, cookies and other sweets. There, Ralph meets Vanellope von Schweetz who has learned that her game is faced with a dire threat that could affect the entire arcade, and one that Ralph may have inadvertently started.",
      "release_date": "2012-11-01"
    },
    {
      "vote_count": 76,
      "id": 10050,
      "video": false,
      "vote_average": 5.5,
      "title": "Get Over It",
      "popularity": 8.472553,
      "poster_path": "/7EeNtzBjB0PJoW6RbaK3rvNrrkz.jpg",
      "original_language": "en",
      "original_title": "Get Over It",
      "genre_ids": [
        35,
        10749
      ],
      "backdrop_path": "/lysEd3G5EEI3k7f71Jmfs5femnN.jpg",
      "adult": false,
      "overview": "When Berke Landers, a popular high school basketball star, gets dumped by his life-long girlfriend, Allison, he soon begins to lose it. But with the help of his best friend Felix's sister Kelly, he follows his ex into the school's spring musical. Thus ensues a love triangle loosely based upon Shakespeare's \"A Midsummer Night's Dream\", where Berke is only to find himself getting over Allison and beginning to fall for Kelly.",
      "release_date": "2001-03-08"
    },
    {
      "vote_count": 590,
      "id": 455,
      "video": false,
      "vote_average": 6.2,
      "title": "Bend It Like Beckham",
      "popularity": 8.312713,
      "poster_path": "/aaLAIPw9vJSVyQLy390TJrntEwF.jpg",
      "original_language": "en",
      "original_title": "Bend It Like Beckham",
      "genre_ids": [
        35,
        18,
        10749
      ],
      "backdrop_path": "/inxjxDR0Afy5FlRmN61ROUJA54k.jpg",
      "adult": false,
      "overview": "Jess Bhamra, the daughter of a strict Indian couple in London, is not permitted to play organized soccer, even though she is 18. When Jess is playing for fun one day, her impressive skills are seen by Jules Paxton, who then convinces Jess to play for her semi-pro team. Jess uses elaborate excuses to hide her matches from her family while also dealing with her romantic feelings for her coach, Joe.",
      "release_date": "2002-04-11"
    }
  ]
}